MyWatch_V1_1/simulation/qsim/MyWatch_V1_0.msim.vcd
$comment
	File created using the following command:
		vcd file MyWatch_V1_0.msim.vcd -direction
$end
$date
	Thu Oct 06 22:48:33 2016
$end
$version
	ModelSim Version 10.3d
$end
$timescale
	1ps
$end

$scope module MyWatch_V1_0_vlg_vec_tst $end
$var reg 1 ! CLOCK $end
$var reg 1 " KEY1 $end
$var reg 1 # KEY2 $end
$var reg 1 $ KEY3 $end
$var reg 1 % RESET $end
$var wire 1 & DIG [7] $end
$var wire 1 ' DIG [6] $end
$var wire 1 ( DIG [5] $end
$var wire 1 ) DIG [4] $end
$var wire 1 * DIG [3] $end
$var wire 1 + DIG [2] $end
$var wire 1 , DIG [1] $end
$var wire 1 - DIG [0] $end
$var wire 1 . SEL [5] $end
$var wire 1 / SEL [4] $end
$var wire 1 0 SEL [3] $end
$var wire 1 1 SEL [2] $end
$var wire 1 2 SEL [1] $end
$var wire 1 3 SEL [0] $end
$var wire 1 4 sampler $end

$scope module i1 $end
$var wire 1 5 gnd $end
$var wire 1 6 vcc $end
$var wire 1 7 unknown $end
$var tri1 1 8 devclrn $end
$var tri1 1 9 devpor $end
$var tri1 1 : devoe $end
$var wire 1 ; KEY1~input_o $end
$var wire 1 < KEY2~input_o $end
$var wire 1 = KEY3~input_o $end
$var wire 1 > DIG[0]~output_o $end
$var wire 1 ? DIG[1]~output_o $end
$var wire 1 @ DIG[2]~output_o $end
$var wire 1 A DIG[3]~output_o $end
$var wire 1 B DIG[4]~output_o $end
$var wire 1 C DIG[5]~output_o $end
$var wire 1 D DIG[6]~output_o $end
$var wire 1 E DIG[7]~output_o $end
$var wire 1 F SEL[0]~output_o $end
$var wire 1 G SEL[1]~output_o $end
$var wire 1 H SEL[2]~output_o $end
$var wire 1 I SEL[3]~output_o $end
$var wire 1 J SEL[4]~output_o $end
$var wire 1 K SEL[5]~output_o $end
$var wire 1 L CLOCK~input_o $end
$var wire 1 M SECOND1|count_num[0]~8_combout $end
$var wire 1 N RESET~input_o $end
$var wire 1 O SECOND1|LessThan0~0_combout $end
$var wire 1 P SECOND1|count_num[3]~15 $end
$var wire 1 Q SECOND1|count_num[4]~16_combout $end
$var wire 1 R SECOND1|count_num[4]~17 $end
$var wire 1 S SECOND1|count_num[5]~18_combout $end
$var wire 1 T SECOND1|count_num[5]~19 $end
$var wire 1 U SECOND1|count_num[6]~20_combout $end
$var wire 1 V SECOND1|count_num[6]~21 $end
$var wire 1 W SECOND1|count_num[7]~22_combout $end
$var wire 1 X SECOND1|LessThan0~1_combout $end
$var wire 1 Y SECOND1|count_num[0]~9 $end
$var wire 1 Z SECOND1|count_num[1]~10_combout $end
$var wire 1 [ SECOND1|count_num[1]~11 $end
$var wire 1 \ SECOND1|count_num[2]~12_combout $end
$var wire 1 ] SECOND1|count_num[2]~13 $end
$var wire 1 ^ SECOND1|count_num[3]~14_combout $end
$var wire 1 _ SECOND1|Equal0~0_combout $end
$var wire 1 ` SECOND1|Equal0~1_combout $end
$var wire 1 a SECOND1|Equal0~2_combout $end
$var wire 1 b SECOND1|ToCarry~q $end
$var wire 1 c MINUTE1|count_num[0]~8_combout $end
$var wire 1 d MINUTE1|LessThan0~0_combout $end
$var wire 1 e MINUTE1|count_num[3]~15 $end
$var wire 1 f MINUTE1|count_num[4]~16_combout $end
$var wire 1 g MINUTE1|count_num[4]~17 $end
$var wire 1 h MINUTE1|count_num[5]~18_combout $end
$var wire 1 i MINUTE1|count_num[5]~19 $end
$var wire 1 j MINUTE1|count_num[6]~20_combout $end
$var wire 1 k MINUTE1|count_num[6]~21 $end
$var wire 1 l MINUTE1|count_num[7]~22_combout $end
$var wire 1 m MINUTE1|LessThan0~1_combout $end
$var wire 1 n MINUTE1|count_num[0]~9 $end
$var wire 1 o MINUTE1|count_num[1]~10_combout $end
$var wire 1 p MINUTE1|count_num[1]~11 $end
$var wire 1 q MINUTE1|count_num[2]~12_combout $end
$var wire 1 r MINUTE1|count_num[2]~13 $end
$var wire 1 s MINUTE1|count_num[3]~14_combout $end
$var wire 1 t MINUTE1|Equal0~0_combout $end
$var wire 1 u MINUTE1|Equal0~1_combout $end
$var wire 1 v MINUTE1|Equal0~2_combout $end
$var wire 1 w MINUTE1|ToCarry~q $end
$var wire 1 x HOUR1|count_num[0]~8_combout $end
$var wire 1 y HOUR1|count_num[0]~9 $end
$var wire 1 z HOUR1|count_num[1]~10_combout $end
$var wire 1 { HOUR1|count_num[1]~11 $end
$var wire 1 | HOUR1|count_num[2]~12_combout $end
$var wire 1 } HOUR1|count_num[2]~13 $end
$var wire 1 ~ HOUR1|count_num[3]~14_combout $end
$var wire 1 !! HOUR1|count_num[3]~15 $end
$var wire 1 "! HOUR1|count_num[4]~16_combout $end
$var wire 1 #! HOUR1|count_num[4]~17 $end
$var wire 1 $! HOUR1|count_num[5]~18_combout $end
$var wire 1 %! HOUR1|count_num[5]~19 $end
$var wire 1 &! HOUR1|count_num[6]~20_combout $end
$var wire 1 '! HOUR1|count_num[6]~21 $end
$var wire 1 (! HOUR1|count_num[7]~22_combout $end
$var wire 1 )! HOUR1|LessThan0~0_combout $end
$var wire 1 *! HOUR1|LessThan0~1_combout $end
$var wire 1 +! HOUR1|LessThan0~2_combout $end
$var wire 1 ,! HOUR1|count_num [7] $end
$var wire 1 -! HOUR1|count_num [6] $end
$var wire 1 .! HOUR1|count_num [5] $end
$var wire 1 /! HOUR1|count_num [4] $end
$var wire 1 0! HOUR1|count_num [3] $end
$var wire 1 1! HOUR1|count_num [2] $end
$var wire 1 2! HOUR1|count_num [1] $end
$var wire 1 3! HOUR1|count_num [0] $end
$var wire 1 4! MINUTE1|count_num [7] $end
$var wire 1 5! MINUTE1|count_num [6] $end
$var wire 1 6! MINUTE1|count_num [5] $end
$var wire 1 7! MINUTE1|count_num [4] $end
$var wire 1 8! MINUTE1|count_num [3] $end
$var wire 1 9! MINUTE1|count_num [2] $end
$var wire 1 :! MINUTE1|count_num [1] $end
$var wire 1 ;! MINUTE1|count_num [0] $end
$var wire 1 <! SECOND1|count_num [7] $end
$var wire 1 =! SECOND1|count_num [6] $end
$var wire 1 >! SECOND1|count_num [5] $end
$var wire 1 ?! SECOND1|count_num [4] $end
$var wire 1 @! SECOND1|count_num [3] $end
$var wire 1 A! SECOND1|count_num [2] $end
$var wire 1 B! SECOND1|count_num [1] $end
$var wire 1 C! SECOND1|count_num [0] $end
$upscope $end
$upscope $end
$enddefinitions $end
#0
$dumpvars
0!
0"
0#
0$
1%
0-
0,
0+
0*
0)
0(
0'
0&
03
02
01
00
0/
0.
x4
05
16
x7
18
19
1:
0;
0<
0=
0>
0?
0@
0A
0B
0C
0D
0E
0F
0G
0H
0I
0J
0K
0L
1M
1N
1O
1P
0Q
0R
0S
1T
0U
0V
0W
0X
0Y
0Z
1[
0\
0]
0^
0_
0`
0a
0b
1c
1d
1e
0f
0g
0h
1i
0j
0k
0l
0m
0n
0o
1p
0q
0r
0s
0t
0u
0v
0w
1x
0y
0z
1{
0|
0}
0~
1!!
0"!
0#!
0$!
1%!
0&!
0'!
0(!
1)!
1*!
0+!
03!
02!
01!
00!
0/!
0.!
0-!
0,!
0;!
0:!
09!
08!
07!
06!
05!
04!
0C!
0B!
0A!
0@!
0?!
0>!
0=!
0<!
$end
#500
1!
1L
04
#1000
0!
0L
14
1C!
1Y
0M
1Z
#1500
1!
1L
04
#2000
0!
0L
14
0C!
1B!
0Y
1`
0[
1M
0Z
1[
1Z
1\
0\
#2500
1!
1L
04
#3000
0!
0L
14
1C!
0O
1Y
0M
0[
0Z
1\
#3500
1!
1L
04
#4000
0!
0L
14
0C!
0B!
1A!
0Y
0`
1[
1]
1M
1Z
0\
0]
0Z
1\
1^
0^
#4500
1!
1L
04
#5000
0!
0L
14
1C!
1Y
0M
1Z
#5500
1!
1L
04
#6000
0!
0L
14
0C!
1B!
0Y
0[
1M
0Z
1[
1]
1Z
0\
0]
1\
1^
0^
#6500
1!
1L
04
#7000
0!
0L
14
1C!
1Y
0M
0[
0Z
1]
0\
1^
#7500
1!
1L
04
#8000
0!
0L
14
0C!
0B!
0A!
1@!
1O
0Y
1[
0]
0P
1M
1Z
1\
0^
1P
0Z
0\
1^
1Q
0Q
#8500
1!
1L
04
#9000
0!
0L
14
1C!
1Y
0M
1Z
#9500
1!
1L
04
#10000
0!
0L
14
0C!
1B!
0Y
1`
0[
1M
0Z
1[
1Z
1\
0\
#10500
1!
1L
04
#11000
0!
0L
14
1C!
0O
1Y
0M
0[
0Z
1\
#11500
1!
1L
04
#12000
0!
0L
14
0C!
0B!
1A!
0Y
0`
1[
1]
1M
1Z
0\
0]
0P
0Z
1\
0^
1P
1^
1Q
0Q
#12500
1!
1L
04
#13000
0!
0L
14
1C!
1Y
0M
1Z
#13500
1!
1L
04
#14000
0!
0L
14
0C!
1B!
0Y
0[
1M
0Z
1[
1]
1Z
0\
0]
0P
1\
0^
1P
1^
1Q
0Q
#14500
1!
1L
04
#15000
0!
0L
14
1C!
1Y
0M
0[
0Z
1]
0\
0P
0^
1Q
#15500
1!
1L
04
#16000
0!
0L
14
1?!
0C!
0B!
0A!
0@!
1R
1O
0Y
1[
0]
1P
0Q
1M
1Z
1\
1^
0R
1S
0Z
0\
0^
1Q
0S
#16500
1!
1L
04
#17000
0!
0L
14
1C!
1Y
0M
1Z
#17500
1!
1L
04
#18000
0!
0L
14
0C!
1B!
0Y
1`
0[
1M
0Z
1[
1Z
1\
0\
#18500
1!
1L
04
#19000
0!
0L
14
1C!
0O
1Y
0M
0[
0Z
1\
#19500
1!
1L
04
#20000
0!
0L
14
0C!
0B!
1A!
0Y
0`
1[
1]
1M
1Z
0\
0]
0Z
1\
1^
0^
#20500
1!
1L
04
#21000
0!
0L
14
1C!
1Y
0M
1Z
#21500
1!
1L
04
#22000
0!
0L
14
0C!
1B!
0Y
0[
1M
0Z
1[
1]
1Z
0\
0]
1\
1^
0^
#22500
1!
1L
04
#23000
0!
0L
14
1C!
1Y
0M
0[
0Z
1]
0\
1^
#23500
1!
1L
04
#24000
0!
0L
14
0C!
0B!
0A!
1@!
1O
0Y
1[
0]
0P
1M
1Z
1\
0^
1P
1R
0Z
0\
1^
0Q
0R
1Q
1S
0S
#24500
1!
1L
04
#25000
0!
0L
14
1C!
1Y
0M
1Z
#25500
1!
1L
04
#26000
0!
0L
14
0C!
1B!
0Y
1`
0[
1M
0Z
1[
1Z
1\
0\
#26500
1!
1L
04
#27000
0!
0L
14
1C!
0O
1Y
0M
0[
0Z
1\
#27500
1!
1L
04
#28000
0!
0L
14
0C!
0B!
1A!
0Y
0`
1[
1]
1M
1Z
0\
0]
0P
0Z
1\
0^
1P
1R
1^
0Q
0R
1Q
1S
0S
#28500
1!
1L
04
#29000
0!
0L
14
1C!
1Y
0M
1Z
#29500
1!
1L
04
#30000
0!
0L
14
0C!
1B!
0Y
0[
1M
0Z
1[
1]
1Z
0\
0]
0P
1\
0^
1P
1R
1^
0Q
0R
1Q
1S
0S
#30500
1!
1L
04
#31000
0!
0L
14
1C!
1Y
0M
0[
0Z
1]
0\
0P
0^
1R
0Q
1S
#31500
1!
1L
04
#32000
0!
0L
14
0?!
1>!
0C!
0B!
0A!
0@!
0R
0T
1O
0Y
1[
0]
1P
1Q
0S
1M
1Z
1\
1^
1T
1S
1U
0Z
0\
0^
0Q
0U
#32500
1!
1L
04
#33000
0!
0L
14
1C!
1Y
0M
1Z
#33500
1!
1L
04
#34000
0!
0L
14
0C!
1B!
0Y
1`
0[
1M
0Z
1[
1Z
1\
0\
#34500
1!
1L
04
#35000
0!
0L
14
1C!
0O
1Y
0M
0[
0Z
1\
#35500
1!
1L
04
#36000
0!
0L
14
0C!
0B!
1A!
0Y
0`
1[
1]
1M
1Z
0\
0]
0Z
1\
1^
0^
#36500
1!
1L
04
#37000
0!
0L
14
1C!
1Y
0M
1Z
#37500
1!
1L
04
#38000
0!
0L
14
0C!
1B!
0Y
0[
1M
0Z
1[
1]
1Z
0\
0]
1\
1^
0^
#38500
1!
1L
04
#39000
0!
0L
14
1C!
1Y
0M
0[
0Z
1]
0\
1^
#39500
1!
1L
04
#40000
0!
0L
14
0C!
0B!
0A!
1@!
1O
0Y
1[
0]
0P
1M
1Z
1\
0^
1P
0Z
0\
1^
1Q
0Q
#40500
1!
1L
04
#41000
0!
0L
14
1C!
1Y
0M
1Z
#41500
1!
1L
04
#42000
0!
0L
14
0C!
1B!
0Y
1`
0[
1M
0Z
1[
1Z
1\
0\
#42500
1!
1L
04
#43000
0!
0L
14
1C!
0O
1Y
0M
0[
0Z
1\
#43500
1!
1L
04
#44000
0!
0L
14
0C!
0B!
1A!
0Y
0`
1[
1]
1M
1Z
0\
0]
0P
0Z
1\
0^
1P
1^
1Q
0Q
#44500
1!
1L
04
#45000
0!
0L
14
1C!
1Y
0M
1Z
#45500
1!
1L
04
#46000
0!
0L
14
0C!
1B!
0Y
0[
1M
0Z
1[
1]
1Z
0\
0]
0P
1\
0^
1P
1^
1Q
0Q
#46500
1!
1L
04
#47000
0!
0L
14
1C!
1Y
0M
0[
0Z
1]
0\
0P
0^
1Q
#47500
1!
1L
04
#48000
0!
0L
14
1?!
0C!
0B!
0A!
0@!
1R
1O
0Y
1[
0]
1P
0Q
1M
1Z
1\
1^
0T
0R
0S
0Z
0\
0^
1Q
1T
1U
1S
0U
#48500
1!
1L
04
#49000
0!
0L
14
1C!
1Y
0M
1Z
#49500
1!
1L
04
#50000
0!
0L
14
0C!
1B!
0Y
1`
0[
1M
0Z
1[
1Z
1\
0\
#50500
1!
1L
04
#51000
0!
0L
14
1C!
0O
1Y
0M
0[
0Z
1\
#51500
1!
1L
04
#52000
0!
0L
14
0C!
0B!
1A!
0Y
0`
1[
1]
1M
1Z
0\
0]
0Z
1\
1^
0^
#52500
1!
1L
04
#53000
0!
0L
14
1C!
1Y
0M
1Z
#53500
1!
1L
04
#54000
0!
0L
14
0C!
1B!
0Y
0[
1M
0Z
1[
1]
1Z
0\
0]
1\
1^
0^
#54500
1!
1L
04
#55000
0!
0L
14
1C!
1Y
0M
0[
0Z
1]
0\
1^
#55500
1!
1L
04
#56000
0!
0L
14
0C!
0B!
0A!
1@!
1O
0Y
1[
0]
1_
0P
1M
1Z
1\
0^
1P
1R
0Z
0\
1^
0Q
0R
0T
1Q
0S
1T
1S
1U
0U
#56500
1!
1L
04
#57000
0!
0L
14
1C!
1Y
0M
1Z
#57500
1!
1L
04
#58000
0!
0L
14
0C!
1B!
0Y
1`
0[
1M
0Z
1[
1Z
1a
1\
0\
#58500
1!
1L
04
#59000
0!
0L
14
1C!
1b
0O
1Y
0a
0M
1X
0[
0Z
1\
#59500
1!
1L
04
#60000
0!
0L
14
0?!
0>!
0C!
0B!
0@!
0b
0_
1O
0Y
0`
1[
0Q
0S
1a
1M
1Z
0^
0X
0a
0Z
0\
1;!
1n
0c
1o
#60500
1!
1L
04
#61000
0!
0L
14
1C!
1Y
0M
1Z
#61500
1!
1L
04
#62000
0!
0L
14
0C!
1B!
0Y
1`
0[
1M
0Z
1[
1Z
1\
0\
#62500
1!
1L
04
#63000
0!
0L
14
1C!
0O
1Y
0M
0[
0Z
1\
#63500
1!
1L
04
#64000
0!
0L
14
0C!
0B!
1A!
0Y
0`
1[
1]
1M
1Z
0\
0]
0Z
1\
1^
0^
#64500
1!
1L
04
#65000
0!
0L
14
1C!
1Y
0M
1Z
#65500
1!
1L
04
#66000
0!
0L
14
0C!
1B!
0Y
0[
1M
0Z
1[
1]
1Z
0\
0]
1\
1^
0^
#66500
1!
1L
04
#67000
0!
0L
14
1C!
1Y
0M
0[
0Z
1]
0\
1^
#67500
1!
1L
04
#68000
0!
0L
14
0C!
0B!
0A!
1@!
1O
0Y
1[
0]
0P
1M
1Z
1\
0^
1P
0Z
0\
1^
1Q
0Q
#68500
1!
1L
04
#69000
0!
0L
14
1C!
1Y
0M
1Z
#69500
1!
1L
04
#70000
0!
0L
14
0C!
1B!
0Y
1`
0[
1M
0Z
1[
1Z
1\
0\
#70500
1!
1L
04
#71000
0!
0L
14
1C!
0O
1Y
0M
0[
0Z
1\
#71500
1!
1L
04
#72000
0!
0L
14
0C!
0B!
1A!
0Y
0`
1[
1]
1M
1Z
0\
0]
0P
0Z
1\
0^
1P
1^
1Q
0Q
#72500
1!
1L
04
#73000
0!
0L
14
1C!
1Y
0M
1Z
#73500
1!
1L
04
#74000
0!
0L
14
0C!
1B!
0Y
0[
1M
0Z
1[
1]
1Z
0\
0]
0P
1\
0^
1P
1^
1Q
0Q
#74500
1!
1L
04
#75000
0!
0L
14
1C!
1Y
0M
0[
0Z
1]
0\
0P
0^
1Q
#75500
1!
1L
04
#76000
0!
0L
14
1?!
0C!
0B!
0A!
0@!
1R
1O
0Y
1[
0]
1P
0Q
1M
1Z
1\
1^
0R
1S
0Z
0\
0^
1Q
0S
#76500
1!
1L
04
#77000
0!
0L
14
1C!
1Y
0M
1Z
#77500
1!
1L
04
#78000
0!
0L
14
0C!
1B!
0Y
1`
0[
1M
0Z
1[
1Z
1\
0\
#78500
1!
1L
04
#79000
0!
0L
14
1C!
0O
1Y
0M
0[
0Z
1\
#79500
1!
1L
04
#80000
0!
0L
14
0C!
0B!
1A!
0Y
0`
1[
1]
1M
1Z
0\
0]
0Z
1\
1^
0^
#80500
1!
1L
04
#81000
0!
0L
14
1C!
1Y
0M
1Z
#81500
1!
1L
04
#82000
0!
0L
14
0C!
1B!
0Y
0[
1M
0Z
1[
1]
1Z
0\
0]
1\
1^
0^
#82500
1!
1L
04
#83000
0!
0L
14
1C!
1Y
0M
0[
0Z
1]
0\
1^
#83500
1!
1L
04
#84000
0!
0L
14
0C!
0B!
0A!
1@!
1O
0Y
1[
0]
0P
1M
1Z
1\
0^
1P
1R
0Z
0\
1^
0Q
0R
1Q
1S
0S
#84500
1!
1L
04
#85000
0!
0L
14
1C!
1Y
0M
1Z
#85500
1!
1L
04
#86000
0!
0L
14
0C!
1B!
0Y
1`
0[
1M
0Z
1[
1Z
1\
0\
#86500
1!
1L
04
#87000
0!
0L
14
1C!
0O
1Y
0M
0[
0Z
1\
#87500
1!
1L
04
#88000
0!
0L
14
0C!
0B!
1A!
0Y
0`
1[
1]
1M
1Z
0\
0]
0P
0Z
1\
0^
1P
1R
1^
0Q
0R
1Q
1S
0S
#88500
1!
1L
04
#89000
0!
0L
14
1C!
1Y
0M
1Z
#89500
1!
1L
04
#90000
0!
0L
14
0C!
1B!
0Y
0[
1M
0Z
1[
1]
1Z
0\
0]
0P
1\
0^
1P
1R
1^
0Q
0R
1Q
1S
0S
#90500
1!
1L
04
#91000
0!
0L
14
1C!
1Y
0M
0[
0Z
1]
0\
0P
0^
1R
0Q
1S
#91500
1!
1L
04
#92000
0!
0L
14
0?!
1>!
0C!
0B!
0A!
0@!
0R
0T
1O
0Y
1[
0]
1P
1Q
0S
1M
1Z
1\
1^
1T
1S
1U
0Z
0\
0^
0Q
0U
#92500
1!
1L
04
#93000
0!
0L
14
1C!
1Y
0M
1Z
#93500
1!
1L
04
#94000
0!
0L
14
0C!
1B!
0Y
1`
0[
1M
0Z
1[
1Z
1\
0\
#94500
1!
1L
04
#95000
0!
0L
14
1C!
0O
1Y
0M
0[
0Z
1\
#95500
1!
1L
04
#96000
0!
0L
14
0C!
0B!
1A!
0Y
0`
1[
1]
1M
1Z
0\
0]
0Z
1\
1^
0^
#96500
1!
1L
04
#97000
0!
0L
14
1C!
1Y
0M
1Z
#97500
1!
1L
04
#98000
0!
0L
14
0C!
1B!
0Y
0[
1M
0Z
1[
1]
1Z
0\
0]
1\
1^
0^
#98500
1!
1L
04
#99000
0!
0L
14
1C!
1Y
0M
0[
0Z
1]
0\
1^
#99500
1!
1L
04
#100000
0!
0L
14
0C!
0B!
0A!
1@!
1O
0Y
1[
0]
0P
1M
1Z
1\
0^
1P
0Z
0\
1^
1Q
0Q
#100500
1!
1L
04
#101000
0!
0L
14
1C!
1Y
0M
1Z
#101500
1!
1L
04
#102000
0!
0L
14
0C!
1B!
0Y
1`
0[
1M
0Z
1[
1Z
1\
0\
#102500
1!
1L
04
#103000
0!
0L
14
1C!
0O
1Y
0M
0[
0Z
1\
#103500
1!
1L
04
#104000
0!
0L
14
0C!
0B!
1A!
0Y
0`
1[
1]
1M
1Z
0\
0]
0P
0Z
1\
0^
1P
1^
1Q
0Q
#104500
1!
1L
04
#105000
0!
0L
14
1C!
1Y
0M
1Z
#105500
1!
1L
04
#106000
0!
0L
14
0C!
1B!
0Y
0[
1M
0Z
1[
1]
1Z
0\
0]
0P
1\
0^
1P
1^
1Q
0Q
#106500
1!
1L
04
#107000
0!
0L
14
1C!
1Y
0M
0[
0Z
1]
0\
0P
0^
1Q
#107500
1!
1L
04
#108000
0!
0L
14
1?!
0C!
0B!
0A!
0@!
1R
1O
0Y
1[
0]
1P
0Q
1M
1Z
1\
1^
0T
0R
0S
0Z
0\
0^
1Q
1T
1U
1S
0U
#108500
1!
1L
04
#109000
0!
0L
14
1C!
1Y
0M
1Z
#109500
1!
1L
04
#110000
0!
0L
14
0C!
1B!
0Y
1`
0[
1M
0Z
1[
1Z
1\
0\
#110500
1!
1L
04
#111000
0!
0L
14
1C!
0O
1Y
0M
0[
0Z
1\
#111500
1!
1L
04
#112000
0!
0L
14
0C!
0B!
1A!
0Y
0`
1[
1]
1M
1Z
0\
0]
0Z
1\
1^
0^
#112500
1!
1L
04
#113000
0!
0L
14
1C!
1Y
0M
1Z
#113500
1!
1L
04
#114000
0!
0L
14
0C!
1B!
0Y
0[
1M
0Z
1[
1]
1Z
0\
0]
1\
1^
0^
#114500
1!
1L
04
#115000
0!
0L
14
1C!
1Y
0M
0[
0Z
1]
0\
1^
#115500
1!
1L
04
#116000
0!
0L
14
0C!
0B!
0A!
1@!
1O
0Y
1[
0]
1_
0P
1M
1Z
1\
0^
1P
1R
0Z
0\
1^
0Q
0R
0T
1Q
0S
1T
1S
1U
0U
#116500
1!
1L
04
#117000
0!
0L
14
1C!
1Y
0M
1Z
#117500
1!
1L
04
#118000
0!
0L
14
0C!
1B!
0Y
1`
0[
1M
0Z
1[
1Z
1a
1\
0\
#118500
1!
1L
04
#119000
0!
0L
14
1C!
1b
0O
1Y
0a
0M
1X
0[
0Z
1\
#119500
1!
1L
04
#120000
0!
0L
14
0?!
0>!
0C!
0B!
0@!
0b
0_
1O
0Y
0`
1[
0Q
0S
1a
1M
1Z
0^
0X
0a
0Z
0\
0;!
1:!
0n
1u
0p
1c
0o
1p
1o
1q
0q
#120500
1!
1L
04
#121000
0!
0L
14
1C!
1Y
0M
1Z
#121500
1!
1L
04
#122000
0!
0L
14
0C!
1B!
0Y
1`
0[
1M
0Z
1[
1Z
1\
0\
#122500
1!
1L
04
#123000
0!
0L
14
1C!
0O
1Y
0M
0[
0Z
1\
#123500
1!
1L
04
#124000
0!
0L
14
0C!
0B!
1A!
0Y
0`
1[
1]
1M
1Z
0\
0]
0Z
1\
1^
0^
#124500
1!
1L
04
#125000
0!
0L
14
1C!
1Y
0M
1Z
#125500
1!
1L
04
#126000
0!
0L
14
0C!
1B!
0Y
0[
1M
0Z
1[
1]
1Z
0\
0]
1\
1^
0^
#126500
1!
1L
04
#127000
0!
0L
14
1C!
1Y
0M
0[
0Z
1]
0\
1^
#127500
1!
1L
04
#128000
0!
0L
14
0C!
0B!
0A!
1@!
1O
0Y
1[
0]
0P
1M
1Z
1\
0^
1P
0Z
0\
1^
1Q
0Q
#128500
1!
1L
04
#129000
0!
0L
14
1C!
1Y
0M
1Z
#129500
1!
1L
04
#130000
0!
0L
14
0C!
1B!
0Y
1`
0[
1M
0Z
1[
1Z
1\
0\
#130500
1!
1L
04
#131000
0!
0L
14
1C!
0O
1Y
0M
0[
0Z
1\
#131500
1!
1L
04
#132000
0!
0L
14
0C!
0B!
1A!
0Y
0`
1[
1]
1M
1Z
0\
0]
0P
0Z
1\
0^
1P
1^
1Q
0Q
#132500
1!
1L
04
#133000
0!
0L
14
1C!
1Y
0M
1Z
#133500
1!
1L
04
#134000
0!
0L
14
0C!
1B!
0Y
0[
1M
0Z
1[
1]
1Z
0\
0]
0P
1\
0^
1P
1^
1Q
0Q
#134500
1!
1L
04
#135000
0!
0L
14
1C!
1Y
0M
0[
0Z
1]
0\
0P
0^
1Q
#135500
1!
1L
04
#136000
0!
0L
14
1?!
0C!
0B!
0A!
0@!
1R
1O
0Y
1[
0]
1P
0Q
1M
1Z
1\
1^
0R
1S
0Z
0\
0^
1Q
0S
#136500
1!
1L
04
#137000
0!
0L
14
1C!
1Y
0M
1Z
#137500
1!
1L
04
#138000
0!
0L
14
0C!
1B!
0Y
1`
0[
1M
0Z
1[
1Z
1\
0\
#138500
1!
1L
04
#139000
0!
0L
14
1C!
0O
1Y
0M
0[
0Z
1\
#139500
1!
1L
04
#140000
0!
0L
14
0C!
0B!
1A!
0Y
0`
1[
1]
1M
1Z
0\
0]
0Z
1\
1^
0^
#140500
1!
1L
04
#141000
0!
0L
14
1C!
1Y
0M
1Z
#141500
1!
1L
04
#142000
0!
0L
14
0C!
1B!
0Y
0[
1M
0Z
1[
1]
1Z
0\
0]
1\
1^
0^
#142500
1!
1L
04
#143000
0!
0L
14
1C!
1Y
0M
0[
0Z
1]
0\
1^
#143500
1!
1L
04
#144000
0!
0L
14
0C!
0B!
0A!
1@!
1O
0Y
1[
0]
0P
1M
1Z
1\
0^
1P
1R
0Z
0\
1^
0Q
0R
1Q
1S
0S
#144500
1!
1L
04
#145000
0!
0L
14
1C!
1Y
0M
1Z
#145500
1!
1L
04
#146000
0!
0L
14
0C!
1B!
0Y
1`
0[
1M
0Z
1[
1Z
1\
0\
#146500
1!
1L
04
#147000
0!
0L
14
1C!
0O
1Y
0M
0[
0Z
1\
#147500
1!
1L
04
#148000
0!
0L
14
0C!
0B!
1A!
0Y
0`
1[
1]
1M
1Z
0\
0]
0P
0Z
1\
0^
1P
1R
1^
0Q
0R
1Q
1S
0S
#148500
1!
1L
04
#149000
0!
0L
14
1C!
1Y
0M
1Z
#149500
1!
1L
04
#150000
0!
0L
14
0C!
1B!
0Y
0[
1M
0Z
1[
1]
1Z
0\
0]
0P
1\
0^
1P
1R
1^
0Q
0R
1Q
1S
0S
#150500
1!
1L
04
#151000
0!
0L
14
1C!
1Y
0M
0[
0Z
1]
0\
0P
0^
1R
0Q
1S
#151500
1!
1L
04
#152000
0!
0L
14
0?!
1>!
0C!
0B!
0A!
0@!
0R
0T
1O
0Y
1[
0]
1P
1Q
0S
1M
1Z
1\
1^
1T
1S
1U
0Z
0\
0^
0Q
0U
#152500
1!
1L
04
#153000
0!
0L
14
1C!
1Y
0M
1Z
#153500
1!
1L
04
#154000
0!
0L
14
0C!
1B!
0Y
1`
0[
1M
0Z
1[
1Z
1\
0\
#154500
1!
1L
04
#155000
0!
0L
14
1C!
0O
1Y
0M
0[
0Z
1\
#155500
1!
1L
04
#156000
0!
0L
14
0C!
0B!
1A!
0Y
0`
1[
1]
1M
1Z
0\
0]
0Z
1\
1^
0^
#156500
1!
1L
04
#157000
0!
0L
14
1C!
1Y
0M
1Z
#157500
1!
1L
04
#158000
0!
0L
14
0C!
1B!
0Y
0[
1M
0Z
1[
1]
1Z
0\
0]
1\
1^
0^
#158500
1!
1L
04
#159000
0!
0L
14
1C!
1Y
0M
0[
0Z
1]
0\
1^
#159500
1!
1L
04
#160000
0!
0L
14
0C!
0B!
0A!
1@!
1O
0Y
1[
0]
0P
1M
1Z
1\
0^
1P
0Z
0\
1^
1Q
0Q
#160500
1!
1L
04
#161000
0!
0L
14
1C!
1Y
0M
1Z
#161500
1!
1L
04
#162000
0!
0L
14
0C!
1B!
0Y
1`
0[
1M
0Z
1[
1Z
1\
0\
#162500
1!
1L
04
#163000
0!
0L
14
1C!
0O
1Y
0M
0[
0Z
1\
#163500
1!
1L
04
#164000
0!
0L
14
0C!
0B!
1A!
0Y
0`
1[
1]
1M
1Z
0\
0]
0P
0Z
1\
0^
1P
1^
1Q
0Q
#164500
1!
1L
04
#165000
0!
0L
14
1C!
1Y
0M
1Z
#165500
1!
1L
04
#166000
0!
0L
14
0C!
1B!
0Y
0[
1M
0Z
1[
1]
1Z
0\
0]
0P
1\
0^
1P
1^
1Q
0Q
#166500
1!
1L
04
#167000
0!
0L
14
1C!
1Y
0M
0[
0Z
1]
0\
0P
0^
1Q
#167500
1!
1L
04
#168000
0!
0L
14
1?!
0C!
0B!
0A!
0@!
1R
1O
0Y
1[
0]
1P
0Q
1M
1Z
1\
1^
0T
0R
0S
0Z
0\
0^
1Q
1T
1U
1S
0U
#168500
1!
1L
04
#169000
0!
0L
14
1C!
1Y
0M
1Z
#169500
1!
1L
04
#170000
0!
0L
14
0C!
1B!
0Y
1`
0[
1M
0Z
1[
1Z
1\
0\
#170500
1!
1L
04
#171000
0!
0L
14
1C!
0O
1Y
0M
0[
0Z
1\
#171500
1!
1L
04
#172000
0!
0L
14
0C!
0B!
1A!
0Y
0`
1[
1]
1M
1Z
0\
0]
0Z
1\
1^
0^
#172500
1!
1L
04
#173000
0!
0L
14
1C!
1Y
0M
1Z
#173500
1!
1L
04
#174000
0!
0L
14
0C!
1B!
0Y
0[
1M
0Z
1[
1]
1Z
0\
0]
1\
1^
0^
#174500
1!
1L
04
#175000
0!
0L
14
1C!
1Y
0M
0[
0Z
1]
0\
1^
#175500
1!
1L
04
#176000
0!
0L
14
0C!
0B!
0A!
1@!
1O
0Y
1[
0]
1_
0P
1M
1Z
1\
0^
1P
1R
0Z
0\
1^
0Q
0R
0T
1Q
0S
1T
1S
1U
0U
#176500
1!
1L
04
#177000
0!
0L
14
1C!
1Y
0M
1Z
#177500
1!
1L
04
